﻿[
  {
    "outputFile": "Content/pages/test.css",
    "inputFile": "Content/pages/test.scss"
  },
  {
    "outputFile": "Content/editorjs.css",
    "inputFile": "Content/editorjs.scss"
  },
  {
    "outputFile": "Scripts/editorjs/tunes.es5.js",
    "inputFile": "Scripts/editorjs/tunes.js"
  },
  {
    "outputFile": "Content/choices.css",
    "inputFile": "Content/choices.less"
  },
  {
    "outputFile": "Content/pages/owner.css",
    "inputFile": "Content/pages/owner.scss"
  },
  {
    "outputFile": "assets/sass/components/_button.css",
    "inputFile": "assets/sass/components/_button.scss"
  },
  {
    "outputFile": "assets/sass/components/_address.css",
    "inputFile": "assets/sass/components/_address.scss"
  },
  {
    "outputFile": "assets/sass/utilities/_breakpoints.css",
    "inputFile": "assets/sass/utilities/_breakpoints.scss"
  },
  {
    "outputFile": "assets/sass/utilities/_clearfix.css",
    "inputFile": "assets/sass/utilities/_clearfix.scss"
  },
  {
    "outputFile": "assets/sass/utilities/_display.css",
    "inputFile": "assets/sass/utilities/_display.scss"
  },
  {
    "outputFile": "assets/sass/utilities/_font-awesome.css",
    "inputFile": "assets/sass/utilities/_font-awesome.scss"
  },
  {
    "outputFile": "assets/sass/utilities/_spacing.css",
    "inputFile": "assets/sass/utilities/_spacing.scss"
  },
  {
    "outputFile": "assets/sass/utilities/_sr-only.css",
    "inputFile": "assets/sass/utilities/_sr-only.scss"
  },
  {
    "outputFile": "assets/sass/utilities/_svg.css",
    "inputFile": "assets/sass/utilities/_svg.scss"
  },
  {
    "outputFile": "assets/sass/utilities/_text.css",
    "inputFile": "assets/sass/utilities/_text.scss"
  },
  {
    "outputFile": "assets/sass/_functions.css",
    "inputFile": "assets/sass/_functions.scss"
  },
  {
    "outputFile": "assets/sass/_reset.css",
    "inputFile": "assets/sass/_reset.scss"
  },
  {
    "outputFile": "assets/sass/_variables.css",
    "inputFile": "assets/sass/_variables.scss"
  },
  {
    "outputFile": "assets/sass/main.css",
    "inputFile": "assets/sass/main.scss"
  },
  {
    "outputFile": "assets/sass/pages/_dashboard.css",
    "inputFile": "assets/sass/pages/_dashboard.scss"
  },
  {
    "outputFile": "assets/sass/pages/_analyse.css",
    "inputFile": "assets/sass/pages/_analyse.scss"
  },
  {
    "outputFile": "assets/sass/pages/_case-detail.css",
    "inputFile": "assets/sass/pages/_case-detail.scss"
  },
  {
    "outputFile": "assets/sass/pages/_software-detail.css",
    "inputFile": "assets/sass/pages/_software-detail.scss"
  },
  {
    "outputFile": "Content/svg.css",
    "inputFile": "Content/svg.scss"
  },
  {
    "outputFile": "Content/Questions.css",
    "inputFile": "Content/Questions.scss"
  }
]